Aedes Vignette • predx
…
Import Aedes Forecasting Challenge forecast

First, the forecaster should create their forecast in the CSV format specified for the Aedes Forecast Challenge by the CDC Epidemic Prediction Initiative (provided as a template at predict.cdc.gov). Forecasts matching this template can be imported using the import_aedes_csv function. This function imports the CSV and converts it to a special, embedded “predx_df” data frame (a tbl_df, “tibble” object) with a row for every individual prediction (defined by target, location, and prediction type), a column predx_class that defines the class of each prediction, and a column predx that is a list of predx objects. In the process of importation, all predictions are validated (e.g.probabilities can’t be negative). If conversion fails, (hopefully useful) errors messages are returned in the predx column.

This function ingests a CSV file, converts the columns to those needed to create a predx object, and creates a predx_df object (throwing error messages if conversion fails).

If the forecast will be stored in a different format, it may be helpful to include additional variables in the predx_df (e.g. submission date, month forecasted). These can be included as additional columns by providing a list to the optional argument add_vars as shown below.

library(predx)
fcast <- import_aedes_csv('aedes_null_forecast.csv', 
  add_vars=list(due_date='2019-03-31', month='April', team='null'))
class(fcast)
#> [1] "tbl_df"     "tbl"        "data.frame"
fcast
#> # A tibble: 190 x 9
#>    location    target   type   unit  due_date month team  predx_class predx
#>    <chr>       <chr>    <chr>  <chr> <chr>    <chr> <chr> <chr>       <lis>
#>  1 California~ Ae. aeg~ binary pres~ 2019-03~ April null  Binary      <Bin~
#>  2 California~ Ae. alb~ binary pres~ 2019-03~ April null  Binary      <Bin~
#>  3 California~ Ae. aeg~ binary pres~ 2019-03~ April null  Binary      <Bin~
#>  4 California~ Ae. alb~ binary pres~ 2019-03~ April null  Binary      <Bin~
#>  5 California~ Ae. aeg~ binary pres~ 2019-03~ April null  Binary      <Bin~
#>  6 California~ Ae. alb~ binary pres~ 2019-03~ April null  Binary      <Bin~
#>  7 California~ Ae. aeg~ binary pres~ 2019-03~ April null  Binary      <Bin~
#>  8 California~ Ae. alb~ binary pres~ 2019-03~ April null  Binary      <Bin~
#>  9 California~ Ae. aeg~ binary pres~ 2019-03~ April null  Binary      <Bin~
#> 10 California~ Ae. alb~ binary pres~ 2019-03~ April null  Binary      <Bin~
#> # ... with 180 more rows
…
