FluSight Vignette • predx
…
Alternatively, predx_df objects can be exported as predx CSV files or FluSight-formatted CSV files (those used for submissions on the FluSight website). These CSV formats differ in several ways:

The predx CSV contains additional columns for MMWR epidemic week, team, and submission date. In the FluSight CSV these are included in the file name only.

The predx CSV includes point predictions as individual rows whereas the FluSight CSV includes them in an additional column.

The FluSight CSV will allow upload on the EPI webpage.

These differences are the results of making predx JSON and CSV formats more generic than the specific FluSight implementation.

csv_tempfile <- tempfile()
export_csv(fcast, filename = csv_tempfile, overwrite = T)
export_flusight_csv(fcast[1:2, ])
#> # A tibble: 132 x 7
#>    location    target     type  unit    bin_start_incl bin_end_notincl    value
#>    <chr>       <chr>      <chr> <chr>   <chr>          <chr>              <dbl>
#>  1 US National 1 wk ahead Point percent <NA>           <NA>            1.30e+ 0
#>  2 US National 1 wk ahead Bin   percent 0.0            0.1             0.      
#>  3 US National 1 wk ahead Bin   percent 0.1            0.2             1.17e-17
#>  4 US National 1 wk ahead Bin   percent 0.2            0.3             1.46e-17
#>  5 US National 1 wk ahead Bin   percent 0.3            0.4             6.80e-18
#>  6 US National 1 wk ahead Bin   percent 0.4            0.5             3.02e-18
#>  7 US National 1 wk ahead Bin   percent 0.5            0.6             2.61e-18
#>  8 US National 1 wk ahead Bin   percent 0.6            0.7             3.78e-18
#>  9 US National 1 wk ahead Bin   percent 0.7            0.8             8.30e-12
#> 10 US National 1 wk ahead Bin   percent 0.8            0.9             2.46e- 5
#> # … with 122 more rows
…
